{
  "name": "Oceans",
  "information": "\nThe oceans theme provides information on the features and characteristics of salt water bodies excluding inland waters. Information available includes&#58 Bays, marine infrastructure,\nreefs and shoals and marine passages.\n \n",
  "expanded": false,
  "tocPath": "oceans",
  "children": [
    {
      "name": "Bays",
      "tocPath": "bay",
      "serviceId": "coastwater",
      "layerId": 6,
      "qspatialUrl": "http://qldspatial.information.qld.gov.au/catalogue/custom/search.page?q=%22Bays%20-%20Queensland%22"
    },
    {
      "name": "Marine infrastructure",
      "tocPath": "marinfra",
      "children": [
        {
          "name": "Lighthouses",
          "tocPath": "marpoint",
          "serviceId": "coastwater",
          "layerId": 1,
          "qspatialUrl": "http://qldspatial.information.qld.gov.au/catalogue/custom/search.page?q=%22Lighthouses%20-%20Queensland%22"
        },
        {
          "name": "Breakwaters, groynes and sea walls",
          "tocPath": "marline",
          "serviceId": "coastwater",
          "layerId": 2,
          "qspatialUrl": "http://qldspatial.information.qld.gov.au/catalogue/custom/search.page?q=%22Breakwaters%20groynes%20and%20sea%20walls%20-%20Queensland%22"
        },
        {
          "name": "Marinas",
          "tocPath": "mararea",
          "serviceId": "coastwater",
          "layerId": 3,
          "qspatialUrl": "http://qldspatial.information.qld.gov.au/catalogue/custom/search.page?q=%22Marinas%20-%20Queensland%22"
        }
      ]
    },
    {
      "name": "Reefs and shoals",
      "tocPath": "reef",
      "serviceId": "coastwater",
      "layerId": 4,
      "qspatialUrl": "http://qldspatial.information.qld.gov.au/catalogue/custom/search.page?q=%22Reefs%20and%20Shoals%20-%20Queensland%22"
    },
    {
      "name": "Passages",
      "tocPath": "pass",
      "serviceId": "coastwater",
      "layerId": 5,
      "qspatialUrl": "http://qldspatial.information.qld.gov.au/catalogue/custom/search.page?q=%22Mountain%20ranges%20beaches%20and%20sea%20passages%20-%20Queensland%22"
    }
  ]
}