{
  "name": "Planning cadastre",
  "information": "The Planning and Cadastral theme provides the basic fabric of land ownership. Land Parcel and Property (cadastre) are established for the purpose of land administration and include land parcel and property information. The cadastre refers to all land whether it is leasehold, freehold, national park or strata title. Information available includes&#58 Land use, land parcels (cadastre), lease and reserve parcels and residential land supply.",
  "expanded": false,
  "tocPath": "planning",
  "children": [
    {
      "name": "Areas of regional interest",
      "tocPath": "ari",
      "children": [
        {
          "name": "Priority Agricultural Area",
          "tocPath": "paa",
          "serviceId": "regionint",
          "layerId": 120,
          "qspatialUrl": "http://qldspatial.information.qld.gov.au/catalogue/custom/search.page?q=%22Regional%20planning%20interests%20-%20Priority%20agricultural%20area%22"
        },
        {
          "name": "Draft SEQ Priority Agricultural Area (2016)",
          "tocPath": "draftseqpaa",
          "serviceId": "regionint",
          "layerId": 210,
          "qspatialUrl": "http://qldspatial.information.qld.gov.au/catalogue/custom/search.page?q=%22Draft%20SEQ%20Priority%20Agricultural%20Area%202016%22"
        },
        {
          "name": "Draft SEQ Priority Agricultural Area (2016)",
          "tocPath": "pla",
          "serviceId": "regionint",
          "layerId": 110,
          "qspatialUrl": "http://qldspatial.information.qld.gov.au/catalogue/custom/search.page?q=%22Regional%20planning%20interests%20-%20Priority%20living%20area%22"
        },
        {
          "name": "Draft SEQ Priority Living Area (2016)",
          "tocPath": "draftseqpla",
          "serviceId": "regionint",
          "layerId": 220,
          "qspatialUrl": "http://qldspatial.information.qld.gov.au/catalogue/custom/search.page?q=%22Draft%20SEQ%20Priority%20Living%20Area%202016%22"
        },
        {
          "name": "Strategic Environmental Area",
          "tocPath": "sea",
          "serviceId": "regionint",
          "layerId": 130,
          "qspatialUrl": "http://qldspatial.information.qld.gov.au/catalogue/custom/search.page?q=%22Regional%20planning%20interests%20-%20Strategic%20environmental%20area%22"
        }
      ]
    },
    {
      "name": "Coordinated projects - The Coordinator General",
      "tocPath": "cgp",
      "serviceId": "coordproj",
      "layerId": 10,
      "qspatialUrl": "http://qldspatial.information.qld.gov.au/catalogue/custom/search.page?q=%22Coordinated%20projects%20-%20The%20Coordinator-General%22"
    },
    {
      "name": "Land use",
      "tocPath": "landuse",
      "information": "This dataset is a complete state-wide digital land use map of Queensland, it ia a product of the <a href=\"http://www.qld.gov.au/environment/land/vegetation/mapping/qlump/\" target=\"_blank\">Queensland land use mapping program</a> (QLUMP) and was produced by the Queensland Government. It presents the most current mapping of land use features for Queensland, including the land use mapping products from 1999, 2009, 2011, 2012, 2013 and 2015 in a single feature layer. This dataset was last updated February 2016.",
      "serviceId": "landuse",
      "layerId": 0,
      "qspatialUrl": "http://qldspatial.information.qld.gov.au/catalogue/custom/search.page?q=%22Land%20use%20mapping%20-%20Queensland%20current%22"
    },
    {
      "name": "Land parcels",
      "expanded": false,
      "tocPath": "parcels",
      "children": [
        {
          "name": "Natural boundary",
          "tocPath": "natural",
          "serviceId": "cadastre",
          "layerId": 2,
          "qspatialUrl": "http://qldspatial.information.qld.gov.au/catalogue/custom/search.page?q=%22Cadastral%20data%20-%20Queensland%20-%20by%20area%20of%20interest%22"
        },
        {
          "name": "Road parcel",
          "tocPath": "road",
          "serviceId": "cadastre",
          "layerId": 3,
          "qspatialUrl": "http://qldspatial.information.qld.gov.au/catalogue/custom/search.page?q=%22Cadastral%20data%20-%20Queensland%20-%20by%20area%20of%20interest%22"
        },
        {
          "name": "Land parcel label",
          "tocPath": "labels",
          "qspatialUrl": "http://qldspatial.information.qld.gov.au/catalogue/custom/search.page?q=%22Cadastral%20data%20-%20Queensland%20-%20by%20area%20of%20interest%22",
          "hiddenChildren": [
            {
              "name": "land parcel labels - all",
              "tocPath": "lplall",
              "serviceId": "cadastre",
              "layerId": 23
            },
            {
              "name": "land parcel labels - gt 1 ha",
              "tocPath": "lplgt1",
              "serviceId": "cadastre",
              "layerId": 24
            },
            {
              "name": "land parcel labels - gt 10 ha",
              "tocPath": "lplgt10",
              "serviceId": "cadastre",
              "layerId": 25
            },
            {
              "name": "land parcel labels - gt 1000 ha",
              "tocPath": "lplgt1000",
              "serviceId": "cadastre",
              "layerId": 26
            }
          ]
        },
        {
          "name": "Land parcel",
          "tocPath": "base",
          "qspatialUrl": "http://qldspatial.information.qld.gov.au/catalogue/custom/search.page?q=%22Cadastral%20data%20-%20Queensland%20-%20by%20area%20of%20interest%22",
          "hiddenChildren": [
            {
              "name": "Base parcels - all",
              "tocPath": "all",
              "serviceId": "cadastre",
              "layerId": 5
            },
            {
              "name": "Base parcels - gt 1ha",
              "tocPath": "gt1ha",
              "serviceId": "cadastre",
              "layerId": 6
            },
            {
              "name": "Base parcels - gt 10ha",
              "tocPath": "gt10ha",
              "serviceId": "cadastre",
              "layerId": 7
            },
            {
              "name": "Base parcels - gt 1000ha",
              "tocPath": "gt1000ha",
              "serviceId": "cadastre",
              "layerId": 22
            }
          ]
        },
        {
          "name": "Rights and interests",
          "tocPath": "rights",
          "children": [
            {
              "name": "Easement parcel",
              "tocPath": "easements",
              "serviceId": "cadastre",
              "layerId": 9,
              "qspatialUrl": "http://qldspatial.information.qld.gov.au/catalogue/custom/search.page?q=%22Cadastral%20data%20-%20Queensland%20-%20by%20area%20of%20interest%22"
            },
            {
              "name": "Strata parcel",
              "tocPath": "strata",
              "serviceId": "cadastre",
              "layerId": 10,
              "qspatialUrl": "http://qldspatial.information.qld.gov.au/catalogue/custom/search.page?q=%22Cadastral%20data%20-%20Queensland%20-%20by%20area%20of%20interest%22"
            },
            {
              "name": "Volumetric parcel",
              "tocPath": "volumetric",
              "serviceId": "cadastre",
              "layerId": 11,
              "qspatialUrl": "http://qldspatial.information.qld.gov.au/catalogue/custom/search.page?q=%22Cadastral%20data%20-%20Queensland%20-%20by%20area%20of%20interest%22"
            }
          ]
        }
      ]
    },
    {
      "name": "Land parcel tenure",
      "tocPath": "tenure",
      "serviceId": "cadastre",
      "layerId": 14,
      "qspatialUrl": "http://qldspatial.information.qld.gov.au/catalogue/custom/search.page?q=%22Property%20address%20Queensland%20-data%20package%22"
    },
    {
      "name": "Lease and reserve parcel",
      "tocPath": "lease",
      "serviceId": "cadastre",
      "layerId": 15
    },
    {
      "name": "New South Wales cadastre",
      "tocPath": "nswCd",
      "children": [
        {
          "name": "NSW cadastre labels",
          "tocPath": "nswCdL",
          "children": [
            {
              "name": "Plan extent labels",
              "tocPath": "nswCdPL",
              "serviceId": "nswCad",
              "layerId": 1,
              "qspatialUrl": "https://sdi.nsw.gov.au/catalog/search/resource/details.page?uuid=%7B1AF21EC5-C147-427A-937E-237B3A1C89DC%7D"
            },
            {
              "name": "Section extent labels",
              "tocPath": "nswCdSL",
              "serviceId": "nswCad",
              "layerId": 2,
              "qspatialUrl": "https://sdi.nsw.gov.au/catalog/search/resource/details.page?uuid=%7B1AF21EC5-C147-427A-937E-237B3A1C89DC%7D"
            },
            {
              "name": "Lot labels",
              "tocPath": "nswCdlL",
              "serviceId": "nswCad",
              "layerId": 3,
              "qspatialUrl": "https://sdi.nsw.gov.au/catalog/search/resource/details.page?uuid=%7B1AF21EC5-C147-427A-937E-237B3A1C89DC%7D"
            }
          ]
        },
        {
          "name": "NSW cadastre extents",
          "tocPath": "nswCdX",
          "children": [
            {
              "name": "Large rural plan extent",
              "tocPath": "nswCdlrpx",
              "serviceId": "nswCad",
              "layerId": 5,
              "qspatialUrl": "https://sdi.nsw.gov.au/catalog/search/resource/details.page?uuid=%7B1AF21EC5-C147-427A-937E-237B3A1C89DC%7D"
            },
            {
              "name": "Rural plan extent",
              "tocPath": "nswCdrpx",
              "serviceId": "nswCad",
              "layerId": 6,
              "qspatialUrl": "https://sdi.nsw.gov.au/catalog/search/resource/details.page?uuid=%7B1AF21EC5-C147-427A-937E-237B3A1C89DC%7D"
            },
            {
              "name": "Section extent",
              "tocPath": "nswCdsx",
              "serviceId": "nswCad",
              "layerId": 7,
              "qspatialUrl": "https://sdi.nsw.gov.au/catalog/search/resource/details.page?uuid=%7B1AF21EC5-C147-427A-937E-237B3A1C89DC%7D"
            },
            {
              "name": "Plan extent",
              "tocPath": "nswCdpx",
              "serviceId": "nswCad",
              "layerId": 8,
              "qspatialUrl": "https://sdi.nsw.gov.au/catalog/search/resource/details.page?uuid=%7B1AF21EC5-C147-427A-937E-237B3A1C89DC%7D"
            },
            {
              "name": "Lot extent",
              "tocPath": "nswCdlx",
              "serviceId": "nswCad",
              "layerId": 9,
              "qspatialUrl": "https://sdi.nsw.gov.au/catalog/search/resource/details.page?uuid=%7B1AF21EC5-C147-427A-937E-237B3A1C89DC%7D"
            }
          ]
        }
      ]
    },
    {
      "name": "Regional planning",
      "tocPath": "regplan",
      "children": [
        {
          "name": "Regional planning boundaries",
          "tocPath": "regplanbound",
          "serviceId": "regplan",
          "layerId": 10,
          "qspatialUrl": "http://qldspatial.information.qld.gov.au/catalogue/custom/search.page?q=%22Regional planning area boundaries - Department of Infrastructure, Local Government and Planning%22"
        },
        {
          "name": "South East Queensland Regional Plan",
          "tocPath": "seqregplan",
          "children": [
            {
              "name": "South East Queensland Regional Plan - Proposed changes to regional land use categories (draft 2016)",
              "tocPath": "seqregplnchg",
              "serviceId": "regplan",
              "layerId": 110,
              "qspatialUrl": "http://qldspatial.information.qld.gov.au/catalogue/custom/search.page?q=%22Proposed%20Draft%20South%20East%20Queensland%20Regional%20Plan%20Regional%20Land%20Use%20Category%20changes%202016%22"
            },
            {
              "name": "Development areas - South East Queensland Regional Plan 2009-2031",
              "tocPath": "devareseq",
              "serviceId": "regplan",
              "layerId": 120,
              "qspatialUrl": "http://qldspatial.information.qld.gov.au/catalogue/custom/search.page?q=%22Development%20areas%20-%20South%20East%20Queensland%20Regional%20Plan%202009-2031%22"
            },
            {
              "name": "South East Queensland Regional Plan 2009-2031",
              "tocPath": "seq",
              "serviceId": "regplan",
              "layerId": 130,
              "qspatialUrl": "http://qldspatial.information.qld.gov.au/catalogue/custom/search.page?q=%22Regional%20land%20use%20categories%20-%20South%20East%20Queensland%20Regional%20Plan%202009-2031%22"
            }
          ]
        },
        {
          "name": "Far North Queensland Regional Plan 2009-2031",
          "tocPath": "fnqrplan",
          "serviceId": "regplan",
          "layerId": 210,
          "qspatialUrl": "http://qldspatial.information.qld.gov.au/catalogue/custom/search.page?q=%22Regional%20land%20use%20categories%20-%20Far%20North%20Queensland%20Regional%20Plan%202009-2031%22"
        },
        {
          "name": "Mackay Isaac Whitsunday Regional Plan",
          "tocPath": "miwregplan",
          "children": [
            {
              "name": "Development areas - Mackay Isaac Whitsunday Regional Plan",
              "tocPath": "devmiwregplan",
              "serviceId": "regplan",
              "layerId": 310,
              "qspatialUrl": "http://qldspatial.information.qld.gov.au/catalogue/custom/search.page?q=%22Development%20areas%20-%20Mackay%20Isaac%20Whitsunday%20Regional%20Plan%22"
            },
            {
              "name": "Mackay Isaac Whitsunday Regional Plan",
              "tocPath": "vmiwregpln",
              "serviceId": "regplan",
              "layerId": 320,
              "qspatialUrl": "http://qldspatial.information.qld.gov.au/catalogue/custom/search.page?q=%22Regional%20land%20use%20categories%20-%20Mackay%20Isaac%20Whitsunday%20Regional%20Plan%22"
            }
          ]
        },
        {
          "name": "Wide Bay Burnett Regional Plan",
          "tocPath": "wbbregplan",
          "children": [
            {
              "name": "Development areas - Wide Bay Burnett Regional Plan",
              "tocPath": "devwbbregplan",
              "serviceId": "regplan",
              "layerId": 410,
              "qspatialUrl": "http://qldspatial.information.qld.gov.au/catalogue/custom/search.page?q=%22Development areas - Wide Bay Burnett Regional Plan%22"
            },
            {
              "name": "Wide Bay Burnett Regional Plan",
              "tocPath": "wbbregpln",
              "serviceId": "regplan",
              "layerId": 420,
              "qspatialUrl": "http://qldspatial.information.qld.gov.au/catalogue/custom/search.page?q=%22Regional%20land%20use%20categories%20-%20%20Wide%20Bay%20Burnett%20Regional%20Plan%22"
            }
          ]
        }
      ]
    },
    {
      "name": "Priority development areas",
      "tocPath": "pdeva",
      "serviceId": "priordev",
      "layerId": 10,
      "qspatialUrl": "http://qldspatial.information.qld.gov.au/catalogue/custom/search.page?q=%22Priority%20development%20areas%20-%20economic%20development%20Queensland%22"
    },
    {
      "name": "Residential land supply",
      "tocPath": "reslandsupply",
      "serviceId": "resland",
      "layerId": 0,
      "qspatialUrl": "http://qldspatial.information.qld.gov.au/catalogue/custom/search.page?q=%22Residential%20land%20supply%20-%20Queensland%22"
    },
    {
      "name": "State development areas",
      "tocPath": "sda",
      "children": [
        {
          "name": "State development areas",
          "tocPath": "sdabound",
          "serviceId": "statedevarea",
          "layerId": 10,
          "qspatialUrl": "http://qldspatial.information.qld.gov.au/catalogue/custom/search.page?start=0&q=%22State+Development+Area+boundary+series%22&fq%5B%5D=id.table_s%3Atable.docindex"
        },
        {
          "name": "State development areas precincts",
          "tocPath": "sdap",
          "children": [
            {
              "name": "Abbot Point state development area precincts",
              "tocPath": "apsda",
              "serviceId": "statedevarea",
              "layerId": 110,
              "qspatialUrl": "http://qldspatial.information.qld.gov.au/catalogue/custom/search.page?q=%22State%20Development%20Area%20precincts%20-%20Abbot%20Point%20SDA%22"
            },
            {
              "name": "Bromelton state development area precincts",
              "tocPath": "bsda",
              "serviceId": "statedevarea",
              "layerId": 120,
              "qspatialUrl": "http://qldspatial.information.qld.gov.au/catalogue/custom/search.page?q=%22State Development Area precincts - Bromelton SDA%22"
            },
            {
              "name": "Callide infrastructure corridor state development area (boundary)",
              "tocPath": "cicsda",
              "serviceId": "statedevarea",
              "layerId": 130,
              "qspatialUrl": "http://qldspatial.information.qld.gov.au/catalogue/custom/search.page?q=%22State%20Development%20Area%20boundary%20-%20Callide%20Infrastructure%20Corridor%20SDA%22"
            },
            {
              "name": "Gallilee Basin state development area precincts",
              "tocPath": "gbsda",
              "serviceId": "statedevarea",
              "layerId": 140,
              "qspatialUrl": "http://qldspatial.information.qld.gov.au/catalogue/custom/search.page?q=%22State Development Area precincts - Galilee Basin SDA%22"
            },
            {
              "name": "Gladstone state development area precincts",
              "tocPath": "gsda",
              "serviceId": "statedevarea",
              "layerId": 150,
              "qspatialUrl": "http://qldspatial.information.qld.gov.au/catalogue/custom/search.page?q=%22State Development Area precincts - Gladstone SDA%22"
            },
            {
              "name": "Queensland Childrens Hospital development area precincts",
              "tocPath": "qchsda",
              "serviceId": "statedevarea",
              "layerId": 160,
              "qspatialUrl": "http://qldspatial.information.qld.gov.au/catalogue/custom/search.page?q=%22State%20Development%20Area%20precincts%20-%20Queensland%20Childrens%20Hospital%20SDA%22"
            },
            {
              "name": "Stanwell to Gladstone infrastructure corridor state development area (boundary)",
              "tocPath": "sgicsda",
              "serviceId": "statedevarea",
              "layerId": 170,
              "qspatialUrl": "http://qldspatial.information.qld.gov.au/catalogue/custom/search.page?q=%22State Development Area boundary - Stanwell to Gladstone Infrastructure Corridor SDA%22"
            },
            {
              "name": "Surat Basin infrastructure corridor state development area (boundary)",
              "tocPath": "sbsda",
              "serviceId": "statedevarea",
              "layerId": 180,
              "qspatialUrl": "http://qldspatial.information.qld.gov.au/catalogue/custom/search.page?q=%22State Development Area boundary - Surat Basin Infrastructure Corridor SDA%22"
            },
            {
              "name": "Townsville development area precincts",
              "tocPath": "tsda",
              "serviceId": "statedevarea",
              "layerId": 190,
              "qspatialUrl": "http://qldspatial.information.qld.gov.au/catalogue/custom/search.page?q=%22State%20Development%20Area%20precincts%20-%20Townsville%20SDA%22"
            }
          ]
        }
      ]
    }
  ]
}