{
  "definedSymbols": {
    "default": {
      "simple-marker-symbol": [
        {
          "name": "symbol-color",
          "value": "#ffffff"
        },
        {
          "name": "symbol-style",
          "value": "circle"
        },
        {
          "name": "symbol-size",
          "value": 12
        },
        {
          "name": "symbol-outline-color",
          "value": "#ffffff"
        },
        {
          "name": "symbol-outline-width",
          "value": 3
        }
      ],
      "simple-line-symbol": [
        {
          "name": "symbol-color",
          "value": "#ffffff"
        },
        {
          "name": "symbol-width",
          "value": 5
        }
      ],
      "simple-fill-symbol": [
        {
          "name": "symbol-color",
          "value": "#ffffff"
        },
        {
          "name": "symbol-opacity",
          "value": 15
        },
        {
          "name": "symbol-outline-color",
          "value": "#ffffff"
        },
        {
          "name": "symbol-outline-width",
          "value": 3
        }
      ],
      "text-symbol": [
        {
          "name": "symbol-color",
          "value": "#ffffff"
        },
        {
          "name": "symbol-font-weight",
          "value": "normal"
        },
        {
          "name": "symbol-font-size",
          "value": 16
        },
        {
          "name": "symbol-font-family",
          "value": "sans-serif"
        }
      ],
      "identify": [
        {
          "name": "symbol-checkbox-select",
          "value": 0
        },
        {
          "name": "symbol-checkbox-continue",
          "value": 0
        },
        {
          "name": "symbol-buffer",
          "value": 16
        }
      ]
    },
    "searchBlue": {
      "simple-marker-symbol": [
        {
          "name": "symbol-color",
          "value": "#288cdc"
        },
        {
          "name": "symbol-style",
          "value": "circle"
        },
        {
          "name": "symbol-size",
          "value": 12
        },
        {
          "name": "symbol-outline-color",
          "value": "#288cdc"
        },
        {
          "name": "symbol-outline-width",
          "value": 3
        }
      ],
      "simple-line-symbol": [
        {
          "name": "symbol-color",
          "value": "#288cdc"
        },
        {
          "name": "symbol-width",
          "value": 5
        }
      ],
      "simple-fill-symbol": [
        {
          "name": "symbol-color",
          "value": "#288cdc"
        },
        {
          "name": "symbol-outline-color",
          "value": "#288cdc"
        },
        {
          "name": "symbol-outline-width",
          "value": 3
        }
      ],
      "text-symbol": [
        {
          "name": "symbol-color",
          "value": "#288cdc"
        },
        {
          "name": "symbol-font-weight",
          "value": "normal"
        },
        {
          "name": "symbol-font-size",
          "value": 16
        },
        {
          "name": "symbol-font-family",
          "value": "sans-serif"
        }
      ]
    },
    "highlight": {
      "simple-marker-symbol": [
        {
          "name": "symbol-color",
          "value": "#4bc7f4"
        },
        {
          "name": "symbol-opacity",
          "value": 30
        },
        {
          "name": "symbol-style",
          "value": "circle"
        },
        {
          "name": "symbol-size",
          "value": 30
        },
        {
          "name": "symbol-outline-color",
          "value": "#4bc7f4"
        },
        {
          "name": "symbol-outline-opacity",
          "value": 60
        },
        {
          "name": "symbol-outline-width",
          "value": 7
        }
      ],
      "simple-line-symbol": [
        {
          "name": "symbol-color",
          "value": "#4bc7f4"
        },
        {
          "name": "symbol-opacity",
          "value": 50
        },
        {
          "name": "symbol-width",
          "value": 15
        }
      ],
      "simple-fill-symbol": [
        {
          "name": "symbol-color",
          "value": "#288cdc"
        },
        {
          "name": "symbol-opacity",
          "value": 25
        },
        {
          "name": "symbol-outline-color",
          "value": "#4bc7f4"
        },
        {
          "name": "symbol-outline-opacity",
          "value": 50
        },
        {
          "name": "symbol-outline-width",
          "value": 15
        }
      ],
      "text-symbol": [
        {
          "name": "symbol-color",
          "value": "#4bc7f4"
        },
        {
          "name": "symbol-font-weight",
          "value": "normal"
        },
        {
          "name": "symbol-font-size",
          "value": 16
        },
        {
          "name": "symbol-font-family",
          "value": "sans-serif"
        }
      ]
    }
  },
  "symbolColorOptions": [
    {
      "color": "#8dc63f"
    },
    {
      "color": "#00aeef"
    },
    {
      "color": "#b47fe2"
    },
    {
      "color": "#ec008c"
    },
    {
      "color": "#f7941d"
    },
    {
      "color": "#ffff00",
      "outline": true
    },
    {
      "color": "#ffffff",
      "outline": true
    },
    {
      "color": "#000000",
      "outline": true
    }
  ],
  "symbolEditParams": {
    "simple-marker-symbol": [
      {
        "name": "symbol-style",
        "group": "symbol",
        "type": "select",
        "label": "Style",
        "value": "circle",
        "options": [
          {
            "value": "circle",
            "label": "Circle"
          },
          {
            "value": "cross",
            "label": "Cross"
          },
          {
            "value": "diamond",
            "label": "Diamond"
          },
          {
            "value": "square",
            "label": "Square"
          }
        ]
      },
      {
        "name": "symbol-color",
        "group": "symbol",
        "type": "color",
        "label": "Fill",
        "value": "#ffffff"
      },
      {
        "name": "symbol-opacity",
        "group": "symbol",
        "type": "range",
        "label": "Fill Opacity",
        "units": "%",
        "value": 50,
        "min": 1,
        "max": 100
      },
      {
        "name": "symbol-size",
        "group": "symbol",
        "type": "range",
        "label": "Size",
        "units": "px",
        "value": 12,
        "min": 4,
        "max": 52
      },
      {
        "name": "symbol-outline-color",
        "group": "symbol",
        "type": "color",
        "label": "Stroke",
        "value": "#ffffff"
      },
      {
        "name": "symbol-outline-width",
        "group": "symbol",
        "type": "range",
        "label": "Stroke Width",
        "units": "px",
        "value": 3,
        "min": 2,
        "max": 12
      }
    ],
    "simple-line-symbol": [
      {
        "name": "symbol-color",
        "group": "symbol",
        "type": "color",
        "label": "Colour",
        "value": "#ffffff"
      },
      {
        "name": "symbol-width",
        "group": "symbol",
        "type": "range",
        "label": "Stroke",
        "units": "px",
        "value": 3,
        "min": 2,
        "max": 12
      }
    ],
    "simple-fill-symbol": [
      {
        "name": "symbol-color",
        "group": "symbol",
        "type": "color",
        "label": "Fill",
        "value": "#ffffff"
      },
      {
        "name": "symbol-opacity",
        "group": "symbol",
        "type": "range",
        "label": "Fill Opacity",
        "units": "%",
        "value": 50,
        "min": 1,
        "max": 100
      },
      {
        "name": "symbol-outline-color",
        "group": "symbol",
        "type": "color",
        "label": "Stroke",
        "value": "#ffffff"
      },
      {
        "name": "symbol-outline-width",
        "group": "symbol",
        "type": "range",
        "label": "Stroke Width",
        "units": "px",
        "value": 3,
        "min": 2,
        "max": 12
      }
    ],
    "text-symbol": [
      {
        "name": "symbol-color",
        "group": "symbol",
        "type": "color",
        "label": "Colour",
        "value": "#ffffff"
      },
      {
        "name": "symbol-font-family",
        "group": "symbol",
        "type": "select",
        "label": "Font",
        "value": "sans-serif",
        "options": [
          {
            "value": "serif",
            "label": "serif"
          },
          {
            "value": "sans-serif",
            "label": "sans-serif"
          }
        ]
      },
      {
        "name": "symbol-font-weight",
        "group": "symbol",
        "type": "select",
        "label": "Weight",
        "value": "normal",
        "options": [
          {
            "value": "normal",
            "label": "Normal"
          },
          {
            "value": "bold",
            "label": "Bold"
          }
        ]
      },
      {
        "name": "symbol-font-size",
        "group": "symbol",
        "type": "range",
        "label": "Size",
        "units": "px",
        "value": 12,
        "min": 12,
        "max": 52
      }
    ],
    "identify": [
      {
        "name": "symbol-checkbox-select",
        "group": "symbol",
        "type": "checkbox",
        "label": "Select first item",
        "value": 1
      },
      {
        "name": "symbol-checkbox-continue",
        "group": "symbol",
        "type": "checkbox",
        "label": "Continue identify after select",
        "value": 1
      },
      {
        "name": "symbol-buffer",
        "group": "symbol",
        "type": "range",
        "label": "Buffer",
        "units": "px",
        "value": 16,
        "min": 1,
        "max": 40
      }
    ]
  }
}