[
  "biota",
  "boundaries",
  "economy",
  "elevation",
  "environment",
  "event",
  "farming",
  "geoscientific",
  "imagery-base-maps",
  "inland-waters",
  "location",
  "oceans",
  "planning-cadastre",
  "society",
    "transport",
    "mom"
]
