{
  "version": "2.3.11",
  "proxyUrl": "https://forward.qldglobe.information.qld.gov.au/proxy.php",
  "proxyRules": null,
  "proxyAllUserData": false,
  "securedServices": [
    "//gisservices.information.qld.gov.au/arcgis/rest/services/Imagery/QldBase_QgovSispUsers/ImageServer",
    "//gisservices3.information.qld.gov.au/arcgis/rest/services/Imagery/QldBase_QgovSispUsers/MapServer"
  ],
  "geometryServiceUrl": "https://gisservices.information.qld.gov.au/arcgis/rest/services/Utilities/Geometry/GeometryServer",
  "corsEnabledServers": [
    "gisservices.information.qld.gov.au",
    "geospatial.information.qld.gov.au",
    "sirgis15",
    "uat-gisservices.information.qld.gov.au"
  ],
  "lowProfileBrowserTypes": [
    "ie",
    "safari",
    "firefox"
  ],
  "searchService": {
    "lotPlanSearchUrl": "https://gisservices.information.qld.gov.au/arcgis/rest/services/PlanningCadastre/LandParcelPropertyFramework/MapServer/4",
    "postcodeSearchUrl": "https://uat-gisservices.information.qld.gov.au/arcgis/rest/services/PLS/Addons/MapServer/0",
    "suburbSearchUrl": "https://uat-gisservices.information.qld.gov.au/arcgis/rest/services/PlanningCadastre/LandParcelPropertyFramework/MapServer/19",
    "addressSearchUrl": "https://gisservices.information.qld.gov.au/arcgis/rest/services/Location/QldAddressComposite/GeocodeServer",
    "townNameSearchUrl": "https://gisservices.information.qld.gov.au/arcgis/rest/services/PLS/Addons/MapServer/2"
  },
  "loadTopicsFromApi": true,
  "preferences": [
    {
      "key": "showTopicsOnStartup",
      "value": true
    }
  ],
  "measureNoticesDelay": 10000,
  "exportFeaturesLimit": 1000,
  "exportLayersFormats": [
    "csv"
  ],
  "exportFeaturesFormats": [
    "kml",
    "GeoJSON",
    "csv"
  ],
  "exportPlacesLimit": 1000,
  "exportPlacesFormats": [
    "kml",
    "GeoJSON",
    "csv"
  ],
  "mode": "Map",
  "extent": {
    "xmin": 14255000,
    "ymin": -3392353.1,
    "xmax": 18515000,
    "ymax": -1030422.7053,
    "spatialReference": {
      "wkid": 102100
    }
  },
  "tools": [
    {
      "label": "Identify",
      "toolTip": "Identify",
      "icon": "icon-tool-identify",
      "id": "identify",
      "action": "tool:identify",
      "selected": false,
      "modes": [
        "Scene",
        "Map"
      ],
      "device": [
        "Mobile",
        "Tablet",
        "Desktop"
      ],
      "instance": "query"
    },
    {
      "label": "Pin",
      "toolTip": "Draw point",
      "icon": "icon-tool-point",
      "id": "pin",
      "action": "tool:pin",
      "selected": false,
      "modes": [
        "Scene",
        "Map"
      ],
      "device": [
        "Mobile",
        "Tablet",
        "Desktop"
      ],
      "symbol": "simple-marker-symbol",
      "instance": "draftSurface"
    },
    {
      "label": "Rectangle",
      "toolTip": "Draw rectangle",
      "icon": "icon-tool-rectangle",
      "id": "rectangle",
      "action": "tool:rectangle",
      "selected": false,
      "modes": [
        "Scene",
        "Map"
      ],
      "device": [
        "Tablet",
        "Desktop"
      ],
      "symbol": "simple-fill-symbol",
      "instance": "draftSurface"
    },
    {
      "label": "Line",
      "toolTip": "Draw line",
      "icon": "icon-tool-line",
      "id": "polyline",
      "action": "tool:polyline",
      "selected": false,
      "modes": [
        "Scene",
        "Map"
      ],
      "device": [
        "Desktop"
      ],
      "symbol": "simple-line-symbol",
      "instance": "draftSurface"
    },
    {
      "label": "Polygon",
      "toolTip": "Draw polygon",
      "icon": "icon-tool-polygon",
      "id": "polygon",
      "action": "tool:polygon",
      "selected": false,
      "modes": [
        "Scene",
        "Map"
      ],
      "device": [
        "Desktop"
      ],
      "symbol": "simple-fill-symbol",
      "instance": "draftSurface"
    },
    {
      "label": "Circle",
      "toolTip": "Draw circle",
      "icon": "icon-tool-circle",
      "id": "circle",
      "action": "tool:circle",
      "selected": false,
      "modes": [
        "Scene",
        "Map"
      ],
      "device": [
        "Tablet",
        "Desktop"
      ],
      "hideOnMobile": true,
      "symbol": "simple-fill-symbol",
      "instance": "draftSurface"
    },
    {
      "label": "Text",
      "toolTip": "Draw text",
      "icon": "icon-tool-text",
      "id": "text",
      "action": "tool:text",
      "selected": false,
      "textlabel": true,
      "modes": [
        "Scene",
        "Map"
      ],
      "device": [
        "Mobile",
        "Tablet",
        "Desktop"
      ],
      "symbol": "text-symbol",
      "instance": "draftSurface"
    },
    {
      "label": "Reset",
      "toolTip": "Reset map",
      "icon": "icon-tool-reset",
      "id": "reset",
      "action": "reset",
      "selected": false,
      "modes": [
        "Scene",
        "Map"
      ],
      "device": [
        "Mobile",
        "Tablet",
        "Desktop"
      ]
    }
  ],
  "deviceSizes": [
    {
      "name": "Mobile",
      "minWidth": 200
    },
    {
      "name": "Tablet",
      "minWidth": 480
    },
    {
      "name": "Desktop",
      "minWidth": 800
    }
  ]
}