{
  "name": "Biota (Flora & Fauna)",
  "expanded": false,
  "tocPath": "biota",
  "information": "<p>The biota theme provides access to information about naturally occurring flora and fauna. Information available includes&#58 Vegetation management information.</p>",
  "children": [
    {
      "name": "Aquatic conservation assessments",
      "tocPath": "aca",
      "children": [
        {
          "name": "Bounding areas",
          "tocPath": "acab",
          "serviceId": "aca",
          "layerId": 0,
          "qspatialUrl": "http://qldspatial.information.qld.gov.au/catalogue/custom/search.page?q=%22Aquatic conservation assessment series%22"
        },
        {
          "name": "Study areas",
          "tocPath": "acasa",
          "serviceId": "aca",
          "layerId": 1,
          "qspatialUrl": "http://qldspatial.information.qld.gov.au/catalogue/custom/search.page?q=%22Aquatic conservation assessment series%22"
        },
        {
          "name": "Aquatic conservation assessments - riverine",
          "tocPath": "acar",
          "children": [
            {
              "name": "Riverine subcatchments",
              "tocPath": "acarsubcat",
              "serviceId": "aca",
              "layerId": 3,
              "qspatialUrl": "http://qldspatial.information.qld.gov.au/catalogue/custom/search.page?q=%22Aquatic conservation assessment series%22"
            },
            {
              "name": "Riverine subsections",
              "tocPath": "acarrsubsec",
              "serviceId": "aca",
              "layerId": 4,
              "qspatialUrl": "http://qldspatial.information.qld.gov.au/catalogue/custom/search.page?q=%22Aquatic conservation assessment series%22"
            },
            {
              "name": "Buffered streams - conservation significance",
              "tocPath": "acarbufstr",
              "serviceId": "aca",
              "layerId": 5,
              "qspatialUrl": "http://qldspatial.information.qld.gov.au/catalogue/custom/search.page?q=%22Aquatic conservation assessment series%22"
            },
            {
              "name": "Riverine spatial units - conservation significance",
              "tocPath": "acarspauni",
              "serviceId": "aca",
              "layerId": 6,
              "qspatialUrl": "http://qldspatial.information.qld.gov.au/catalogue/custom/search.page?q=%22Aquatic conservation assessment series%22"
            }
          ]
        },
        {
          "name": "Aquatic conservation assessments - Non-riverine",
          "tocPath": "acan",
          "children": [
            {
              "name": "Non-riverine subcatchments",
              "tocPath": "acanrsubcat",
              "serviceId": "aca",
              "layerId": 8,
              "qspatialUrl": "http://qldspatial.information.qld.gov.au/catalogue/custom/search.page?q=%22Aquatic conservation assessment series%22"
            },
            {
              "name": "Non-riverine subsections",
              "tocPath": "acarnrsubsec",
              "serviceId": "aca",
              "layerId": 9,
              "qspatialUrl": "http://qldspatial.information.qld.gov.au/catalogue/custom/search.page?q=%22Aquatic conservation assessment series%22"
            },
            {
              "name": "Springs - conservation significance",
              "tocPath": "acarnrspring",
              "serviceId": "aca",
              "layerId": 10,
              "qspatialUrl": "http://qldspatial.information.qld.gov.au/catalogue/custom/search.page?q=%22Aquatic conservation assessment series%22"
            },
            {
              "name": "Non-riverine wetlands - conservation significance",
              "tocPath": "acarnrwet",
              "serviceId": "aca",
              "layerId": 11,
              "qspatialUrl": "http://qldspatial.information.qld.gov.au/catalogue/custom/search.page?q=%22Aquatic conservation assessment series%22"
            }
          ]
        }
      ]
    },
    {
      "name": "Biodiversity planning assessments",
      "tocPath": "bpa",
      "children": [
        {
          "name": "Completed biodiversity planning assessment",
          "tocPath": "bpac",
          "serviceId": "bpa",
          "layerId": 0,
          "qspatialUrl": "http://qldspatial.information.qld.gov.au/catalogue/custom/search.page?q=%22Biodiversity planning assessment series%22"
        },
        {
          "name": "Biodiversity significance",
          "tocPath": "bpas",
          "serviceId": "bpa",
          "layerId": 1,
          "qspatialUrl": "http://qldspatial.information.qld.gov.au/catalogue/custom/search.page?q=%22Biodiversity planning assessment series%22"
        }
      ]
    },
    {
      "name": "Biogeographic region",
      "tocPath": "bioreg",
      "serviceId": "adminbdyframe",
      "layerId": 2,
      "qspatialUrl": "http://qldspatial.information.qld.gov.au/catalogue/custom/search.page?q=%22Biogeographic%20regions%20-%20Queensland%22"
    },
    {
      "name": "Biogeographic subregion",
      "tocPath": "biosubreg",
      "serviceId": "adminbdyframe",
      "layerId": 3,
      "qspatialUrl": "http://qldspatial.information.qld.gov.au/catalogue/custom/search.page?q=%22Biogeographic%20regions%20-%20Queensland%22"
    },
    {
      "name": "Groundwater dependent ecosystems (GDE)",
      "tocPath": "gde",
      "children": [
        {
          "name": "Surface expression GDEs",
          "tocPath": "segde",
          "children": [
            {
              "name": "Surface GDE points (spring ecosystems)",
              "tocPath": "sgdep",
              "serviceId": "gde",
              "layerId": 2,
              "qspatialUrl": "http://qldspatial.information.qld.gov.au/catalogue/custom/search.page?q=%22Groundwater dependent ecosystems and potential aquifer mapping - Queensland%22"
            },
            {
              "name": "Surface GDE lines",
              "tocPath": "sgdel",
              "serviceId": "gde",
              "layerId": 3,
              "qspatialUrl": "http://qldspatial.information.qld.gov.au/catalogue/custom/search.page?q=%22Groundwater dependent ecosystems and potential aquifer mapping - Queensland%22"
            },
            {
              "name": "Surface GDE areas",
              "tocPath": "sgdea",
              "serviceId": "gde",
              "layerId": 4,
              "qspatialUrl": "http://qldspatial.information.qld.gov.au/catalogue/custom/search.page?q=%22Groundwater dependent ecosystems and potential aquifer mapping - Queensland%22"
            }
          ]
        },
        {
          "name": "Terrestrial GDE areas",
          "tocPath": "tgdea",
          "serviceId": "gde",
          "layerId": 5,
          "qspatialUrl": "http://qldspatial.information.qld.gov.au/catalogue/custom/search.page?q=%22Groundwater dependent ecosystems and potential aquifer mapping - Queensland%22"
        },
        {
          "name": "Subterranean GDE areas (cave ecosystems)",
          "tocPath": "subtgdea",
          "serviceId": "gde",
          "layerId": 6,
          "qspatialUrl": "http://qldspatial.information.qld.gov.au/catalogue/custom/search.page?q=%22Groundwater dependent ecosystems and potential aquifer mapping - Queensland%22"
        },
        {
          "name": "Potential GDE aquifers",
          "tocPath": "potgdea",
          "serviceId": "gde",
          "layerId": 7,
          "qspatialUrl": "http://qldspatial.information.qld.gov.au/catalogue/custom/search.page?q=%22Groundwater dependent ecosystems and potential aquifer mapping - Queensland%22"
        }
      ]
    },
    {
      "name": "Nature conservation information",
      "tocPath": "nc",
      "children": [
        {
          "name": "Protected plants trigger map",
          "tocPath": "ncpptm",
          "serviceId": "vma",
          "layerId": 201,
          "qspatialUrl": "http://qldspatial.information.qld.gov.au/catalogue/custom/search.page?q=%22Nature Conservation Act protected plants flora survey trigger map spatial layer%22"
        }
      ]
    },
    {
      "name": "Regional ecosystem mapping",
      "tocPath": "re",
      "children": [
        {
          "name": "Regional ecosystem (RE) mapping",
          "tocPath": "rem",
          "children": [
            {
              "name": "Biodiversity status - preclear",
              "tocPath": "rebiopre",
              "serviceId": "remap",
              "layerId": 1,
              "qspatialUrl": "http://qldspatial.information.qld.gov.au/catalogue/custom/search.page?q=%22Biodiversity status of pre-clearing regional ecosystems%22"
            },
            {
              "name": "Biodiversity status - remnant",
              "tocPath": "rebiorem",
              "serviceId": "remap",
              "layerId": 2,
              "qspatialUrl": "http://qldspatial.information.qld.gov.au/catalogue/custom/search.page?q=%22Biodiversity status of 2015 remnant regional ecosystems%22"
            },
            {
              "name": "Landzone - preclear",
              "tocPath": "relzpre",
              "serviceId": "remap",
              "layerId": 3,
              "qspatialUrl": "http://qldspatial.information.qld.gov.au/catalogue/custom/search.page?q=%22Biodiversity status of pre-clearing regional ecosystems%22"
            },
            {
              "name": "Landzone - remnant",
              "tocPath": "relzrem",
              "serviceId": "remap",
              "layerId": 4,
              "qspatialUrl": "http://qldspatial.information.qld.gov.au/catalogue/custom/search.page?q=%22Biodiversity status of 2015 remnant regional ecosystems%22"
            }
          ]
        },
        {
          "name": "Broad vegetation groups (BVG)",
          "tocPath": "bvg",
          "children": [
            {
              "name": "Pre-clearing BVG - 1:1 million",
              "tocPath": "bvgpre1",
              "serviceId": "remap",
              "layerId": 6,
              "qspatialUrl": "http://qldspatial.information.qld.gov.au/catalogue/custom/search.page?q=%22Pre-clearing Broad Vegetation Groups%22"
            },
            {
              "name": "Remnant BVG - 1:1 million",
              "tocPath": "bvgrem1",
              "serviceId": "remap",
              "layerId": 7,
              "qspatialUrl": "http://qldspatial.information.qld.gov.au/catalogue/custom/search.page?q=%22Remnant 2015 Broad Vegetation Groups%22"
            },
            {
              "name": "Pre-clearing BVG - 1:2 million",
              "tocPath": "bvgpre2",
              "serviceId": "remap",
              "layerId": 8,
              "qspatialUrl": "http://qldspatial.information.qld.gov.au/catalogue/custom/search.page?q=%22Pre-clearing Broad Vegetation Groups%22"
            },
            {
              "name": "Remnant BVG - 1:2 million",
              "tocPath": "bvgrem2",
              "serviceId": "remap",
              "layerId": 9,
              "qspatialUrl": "http://qldspatial.information.qld.gov.au/catalogue/custom/search.page?q=%22Remnant 2015 Broad Vegetation Groups%22"
            },
            {
              "name": "Pre-clearing BVG - 1:5 million",
              "tocPath": "bvgpre5",
              "serviceId": "remap",
              "layerId": 10,
              "qspatialUrl": "http://qldspatial.information.qld.gov.au/catalogue/custom/search.page?q=%22Pre-clearing Broad Vegetation Groups%22"
            },
            {
              "name": "Remnant BVG - 1:5 million",
              "tocPath": "bvgrem5",
              "serviceId": "remap",
              "layerId": 11,
              "qspatialUrl": "http://qldspatial.information.qld.gov.au/catalogue/custom/search.page?q=%22Remnant 2015 Broad Vegetation Groups%22"
            }
          ]
        }
      ]
    },
    {
      "name": "Statewide biodiversity corridors",
      "tocPath": "sbc",
      "children": [
        {
          "name": "Terrestrial corridor centrelines",
          "tocPath": "sbctc",
          "serviceId": "biocorr",
          "layerId": 0,
          "qspatialUrl": "http://qldspatial.information.qld.gov.au/catalogue/custom/search.page?q=%22Queensland statewide corridors%22"
        },
        {
          "name": "Riparian corridor centrelines",
          "tocPath": "sbcrc",
          "serviceId": "biocorr",
          "layerId": 1,
          "qspatialUrl": "http://qldspatial.information.qld.gov.au/catalogue/custom/search.page?q=%22Queensland statewide corridors%22"
        },
        {
          "name": "Corridor buffers",
          "tocPath": "sbccb",
          "serviceId": "biocorr",
          "layerId": 3,
          "qspatialUrl": "http://qldspatial.information.qld.gov.au/catalogue/custom/search.page?q=%22Queensland statewide corridors%22"
        }
      ]
    },
    {
      "name": "Vegetation management information",
      "tocPath": "vmi",
      "information": "<p>This topic contains mapping products that assist you to work through the vegetation management framework. It details areas of regulation and outlines rules and values that must be considered when clearing native vegetation.</p> <p>It also includes mapping products to assist with determining land suitability.</p> <p>Read more about <a href=\"https://www.qld.gov.au/environment/land/vegetation/management/\" target=\"blank\">vegetation management in Queensland</a></p> <p>For more information about vegetation management or the vegetation management topic, please contact us by <a href=\"mailto:vegetation@dnrm.qld.gov.au?subject=Queensland Globe - Vegetation management enquiry\">email</a> or call 135VEG (13 58 34).</p> <h2>Vegetation management layers</h2> <p>The vegetation management topic is comprised of a number of layers extracted from various sources.</p> <h3>Regulated vegetation management map</h3> <p>The regulated vegetation management map shows areas as:</p> <ul><li>Category A (red) - areas subject to compliance notices, offsets and voluntary declarations</li> <li>Category B (dark blue) - areas of remnant vegetation with no differentiation between conservation status</li> <li>Category C (light blue) - areas of high-value regrowth on leasehold land for agriculture and grazing purposes with no differentiation between conservation status</li> <li>Category R (yellow) - regrowth watercourse areas on freehold land, indigenous land and leasehold land for agriculture and grazing purposes within the priority reef catchment area of the Wet Tropics, Burdekin and Mackay Whitsunday areas</li></ul> <p>Non-regulated areas of vegetation are shown as:</p> <ul><li>Category X (white) - areas which are non-remnant, not regulated regrowth and not subject to compliance notices, offsets or voluntary declaration</li></ul> <h3>Vegetation management supporting map</h3> <p>Incorporates a number of mapping layers including:</p> <ul><li>Regional ecosystem and remnant mapping</li> <li>Wetlands</li> <li>Watercourses and</li> <li>Essential habitat</li></ul> <p>These layers will assist you to determine:</p> <ul><li>determine whether the proposed clearing meets an exempt purpose</li> <li>understand the requirements of a self-assessable vegetation clearing codes if your clearing is not exempt and you are clearing under a self-assessable code or</li> <li>address the performance requirements of the State Development Assessment Provisions if your proposed clearing requires a development approval</li></ul> <h3>Land suitability overview map</h3> <p>The land suitability overview map assists with identifying the Land Suitability category (2, 3 or 4) under the high-value and irrigated high-value agriculture clearing purpose. This layer can be used to identify land covered by:</p> <ul><li>The land suitability overview map can be used to identify land covered by&#58 Land suitability mapping 1&#58 100,000 scale or better (Category 2 or 3*)</li> <li>Land resource mapping greater than 100,000 scale (Category 4)</li> <li>No mapping available (Category 4)</li></ul> <p>* Category 3 applies to applications where there is some land resource mapping or information available however it either does not cover the entire area, or the land suitability mapping and information does not identify the land as suitable for the proposed crop and management systems.</P> <p>Soil and land resource projects vary considerably in their age, scale, purpose, and method of production.</p> <p>These maps are based on data extracted from the Soil and Land Information System (SALI) supplied by the Queensland Government on 09/07/2015.</p> <p>To identify the specific survey and data for your area of interest, zoom out and turn on the category group layer that applies to your area of interest.</p> <p>For information on high-value agriculture clearing or irrigated high-value agriculture clearing policy or the specific assessment requirements go to <a href=\"https://www.qld.gov.au/environment/land/vegetation/agriculture/\" target=\"blank\">Queensland Government website</a>.</p> <p>For queries about the soils data <a href=\"mailto:soils@qld.gov.au?subject=Queensland Globe - Vegetation management enquiry\">email</a></p> <h3>Land suitability category 2, 3 or 4</h3> <p>These layers can be used to identify an area as a category 2, 3 or 4 Land suitability area for high-value agriculture or irrigated high-value agriculture.</p> <p>These maps are based on data extracted from the Soil and Land Information System (SALI) supplied by the Queensland Government on 09/07/2015.</p> <p>For more information about the type of surveys in these layers go to the Queensland Government soils website and view the pages on <a href=\"http://www.qld.gov.au/environment/land/soil/soil-data/survey-types/\" target=\"blank\">survey type</a> and <a href=\"http://www.qld.gov.au/environment/land/soil/soil-data/land-evaluation/\" target=\"blank\">land evaluation schemes</a>.</p>",
      "children": [
        {
          "name": "Regulated vegetation management map (RVM)",
          "tocPath": "rvmp",
          "children": [
            {
              "name": "RVM category A - vegetation offsets, compliance notices, VDecs",
              "tocPath": "rvmpa",
              "serviceId": "vma",
              "layerId": 102,
              "qspatialUrl": "http://qldspatial.information.qld.gov.au/catalogue/custom/search.page?q=%22Regulated vegetation management map%22"
            },
            {
              "name": "RVM category B - remnant vegetation",
              "tocPath": "rvmpb",
              "serviceId": "vma",
              "layerId": 103,
              "qspatialUrl": "http://qldspatial.information.qld.gov.au/catalogue/custom/search.page?q=%22Regulated vegetation management map%22"
            },
            {
              "name": "RVM category C - high-value regrowth vegetation",
              "tocPath": "rvmpc",
              "serviceId": "vma",
              "layerId": 104,
              "qspatialUrl": "http://qldspatial.information.qld.gov.au/catalogue/custom/search.page?q=%22Regulated vegetation management map%22"
            },
            {
              "name": "RVM category R - reef-regrowth watercource vegetation",
              "tocPath": "rvmpr",
              "serviceId": "vma",
              "layerId": 105,
              "qspatialUrl": "http://qldspatial.information.qld.gov.au/catalogue/custom/search.page?q=%22Regulated vegetation management map%22"
            },
            {
              "name": "RVM category X - vegetation not regulated under the VMA",
              "tocPath": "rvmpx",
              "serviceId": "vma",
              "layerId": 106,
              "qspatialUrl": "http://qldspatial.information.qld.gov.au/catalogue/custom/search.page?q=%22Regulated vegetation management map%22"
            },
            {
              "name": "RVM water",
              "tocPath": "rvmpwater",
              "serviceId": "vma",
              "layerId": 107,
              "qspatialUrl": "http://qldspatial.information.qld.gov.au/catalogue/custom/search.page?q=%22Regulated vegetation management map%22"
            },
            {
              "name": "RVM area not categorised",
              "tocPath": "rvmpnotcat",
              "serviceId": "vma",
              "layerId": 108,
              "qspatialUrl": "http://qldspatial.information.qld.gov.au/catalogue/custom/search.page?q=%22Regulated vegetation management map%22"
            }
          ]
        },
        {
          "name": "Vegetation management regional ecosystem and remnant map labels",
          "tocPath": "vmrl",
          "serviceId": "vma",
          "layerId": 110,
          "qspatialUrl": "http://qldspatial.information.qld.gov.au/catalogue/custom/search.page?q=%22Regional ecosystem and remnant map%22"
        },
        {
          "name": "Vegetation management regional ecosystem and remnant map",
          "tocPath": "vmr",
          "children": [
            {
              "name": "Category A or B area containing endangered regional ecosystems",
              "tocPath": "vmrere",
              "serviceId": "vma",
              "layerId": 121,
              "qspatialUrl": "http://qldspatial.information.qld.gov.au/catalogue/custom/search.page?q=%22Regional ecosystem and remnant map%22"
            },
            {
              "name": "Category A or B area containing of concern regional ecosystems",
              "tocPath": "vmrcre",
              "serviceId": "vma",
              "layerId": 122,
              "qspatialUrl": "http://qldspatial.information.qld.gov.au/catalogue/custom/search.page?q=%22Regional ecosystem and remnant map%22"
            },
            {
              "name": "Category A or B area that is least concern regional ecosystems",
              "tocPath": "vmrlcre",
              "serviceId": "vma",
              "layerId": 123,
              "qspatialUrl": "http://qldspatial.information.qld.gov.au/catalogue/custom/search.page?q=%22Regional ecosystem and remnant map%22"
            },
            {
              "name": "Category A or B area containing endangered and is S20AH",
              "tocPath": "vmreres2",
              "serviceId": "vma",
              "layerId": 124,
              "qspatialUrl": "http://qldspatial.information.qld.gov.au/catalogue/custom/search.page?q=%22Regional ecosystem and remnant map%22"
            },
            {
              "name": "Category A or B area containing of concern and is S20AH",
              "tocPath": "vmrcres2",
              "serviceId": "vma",
              "layerId": 125,
              "qspatialUrl": "http://qldspatial.information.qld.gov.au/catalogue/custom/search.page?q=%22Regional ecosystem and remnant map%22"
            },
            {
              "name": "Category A or B area that is least concern and S20AH",
              "tocPath": "vmrlcres2",
              "serviceId": "vma",
              "layerId": 126,
              "qspatialUrl": "http://qldspatial.information.qld.gov.au/catalogue/custom/search.page?q=%22Regional ecosystem and remnant map%22"
            },
            {
              "name": "Category A or B area remnant",
              "tocPath": "vmrabre",
              "serviceId": "vma",
              "layerId": 127,
              "qspatialUrl": "http://qldspatial.information.qld.gov.au/catalogue/custom/search.page?q=%22Regional ecosystem and remnant map%22"
            },
            {
              "name": "Category C area containing endangered regional ecosystems",
              "tocPath": "vmrccere",
              "serviceId": "vma",
              "layerId": 128,
              "qspatialUrl": "http://qldspatial.information.qld.gov.au/catalogue/custom/search.page?q=%22Regional ecosystem and remnant map%22"
            },
            {
              "name": "Category C area containing of concern regional ecosystems",
              "tocPath": "vmrccre",
              "serviceId": "vma",
              "layerId": 129,
              "qspatialUrl": "http://qldspatial.information.qld.gov.au/catalogue/custom/search.page?q=%22Regional ecosystem and remnant map%22"
            },
            {
              "name": "Category C area that is of least concern regional ecosystems",
              "tocPath": "vmrclcre",
              "serviceId": "vma",
              "layerId": 130,
              "qspatialUrl": "http://qldspatial.information.qld.gov.au/catalogue/custom/search.page?q=%22Regional ecosystem and remnant map%22"
            },
            {
              "name": "Category C area regrowth",
              "tocPath": "vmrcar",
              "serviceId": "vma",
              "layerId": 131,
              "qspatialUrl": "http://qldspatial.information.qld.gov.au/catalogue/custom/search.page?q=%22Regional ecosystem and remnant map%22"
            },
            {
              "name": "Water",
              "tocPath": "vmrw",
              "serviceId": "vma",
              "layerId": 132,
              "qspatialUrl": "http://qldspatial.information.qld.gov.au/catalogue/custom/search.page?q=%22Regional ecosystem and remnant map%22"
            },
            {
              "name": "Non-remnant",
              "tocPath": "vmrnr",
              "serviceId": "vma",
              "layerId": 133,
              "qspatialUrl": "http://qldspatial.information.qld.gov.au/catalogue/custom/search.page?q=%22Regional ecosystem and remnant map%22"
            }
          ]
        },
        {
          "name": "Property map of assessable vegetation (PMAV)",
          "tocPath": "pmav",
          "children": [
            {
              "name": "PMAV category A",
              "tocPath": "pmava",
              "serviceId": "vma",
              "layerId": 141,
              "qspatialUrl": "http://qldspatial.information.qld.gov.au/catalogue/custom/search.page?q=%22Vegetation Management Act property maps of assessable vegetation%22"
            },
            {
              "name": "PMAV category B",
              "tocPath": "pmavb",
              "serviceId": "vma",
              "layerId": 142,
              "qspatialUrl": "http://qldspatial.information.qld.gov.au/catalogue/custom/search.page?q=%22Vegetation Management Act property maps of assessable vegetation%22"
            },
            {
              "name": "PMAV category C",
              "tocPath": "pmavc",
              "serviceId": "vma",
              "layerId": 143,
              "qspatialUrl": "http://qldspatial.information.qld.gov.au/catalogue/custom/search.page?q=%22Vegetation Management Act property maps of assessable vegetation%22"
            },
            {
              "name": "PMAV category R",
              "tocPath": "pmavr",
              "serviceId": "vma",
              "layerId": 144,
              "qspatialUrl": "http://qldspatial.information.qld.gov.au/catalogue/custom/search.page?q=%22Vegetation Management Act property maps of assessable vegetation%22"
            },
            {
              "name": "PMAV category X",
              "tocPath": "pmavx",
              "serviceId": "vma",
              "layerId": 145,
              "qspatialUrl": "http://qldspatial.information.qld.gov.au/catalogue/custom/search.page?q=%22Vegetation Management Act property maps of assessable vegetation%22"
            }
          ]
        },
        {
          "name": "Vegetation management wetlands map",
          "tocPath": "wetlands",
          "serviceId": "vma",
          "layerId": 4,
          "qspatialUrl": "http://qldspatial.information.qld.gov.au/catalogue/custom/search.page?q=%22Vegetation management wetlands map%22"
        },
        {
          "name": "Essential habitat map",
          "tocPath": "essentialhabitat",
          "serviceId": "vma",
          "layerId": 5,
          "qspatialUrl": "http://qldspatial.information.qld.gov.au/catalogue/custom/search.page?q=%22Essential habitat map%22"
        },
        {
          "name": "Vegetation management watercourse/drainage",
          "tocPath": "drainage",
          "children": [
            {
              "name": "Vegetation management watercourse/drainage - 1:100,000 and 1:250,000",
              "tocPath": "vmwt100",
              "serviceId": "vma",
              "layerId": 7,
              "qspatialUrl": "http://qldspatial.information.qld.gov.au/catalogue/custom/search.page?q=%22Vegetation management watercourse and drainage feature map (1:100000 and 1:250000)%22"
            },
            {
              "name": "Vegetation management watercourse/drainage - 1:25,000",
              "tocPath": "vmwt25",
              "serviceId": "vma",
              "layerId": 8,
              "qspatialUrl": "http://qldspatial.information.qld.gov.au/catalogue/custom/search.page?q=%22Vegetation management watercourse and drainage feature map (1:25000)%22"
            }
          ]
        },
        {
          "name": "High-value agriculture (HVA)",
          "tocPath": "hva",
          "children": [
            {
              "name": "HVA land suitability overview map",
              "tocPath": "hvalandsuit",
              "serviceId": "vma",
              "layerId": 10
            },
            {
              "name": "HVA category 2 or 3 land suitability",
              "tocPath": "hvacat2",
              "serviceId": "vma",
              "layerId": 11
            },
            {
              "name": "HVA category 4 land suitability",
              "tocPath": "hvacat4",
              "serviceId": "vma",
              "layerId": 12
            }
          ]
        }
      ]
    }
  ]
}