{
    "name": "Exploration Permits",
    "information": "Test site",
    "defaultVisibility": false,
    "hideChildren": false,
    "expanded": false,
    "tocPath": "exploration",
    "children": [
        {
            "name": "Mineral",
            "tocPath": "mineral",
            "children": [
                {
                    "name": "EPM Application",
                    "tocPath": "epmapp",
                    "serviceId": "momexp",
                    "layerId": 1
                },
                {
                    "name": "EPM Granted",
                    "tocPath": "epmgrant",
                    "serviceId": "momexp",
                    "layerId": 2
                },
                {
                    "name": "Special",
                    "tocPath": "special",
                    "children": [
                        {
                            "name": "EPM Special Application",
                            "tocPath": "epmspecapp",
                            "serviceId": "momexp",
                            "layerId": 4
                        },
                        {
                            "name": "EPM Special Granted",
                            "tocPath": "epmspecgrant",
                            "serviceId": "momexp",
                            "layerId": 5
                        }
                    ]           
                }
            ]
        }
    ]
}
