{
  "name": "Society",
  "information": "The society theme provides information on the characteristics of societies and cultures. Information available includes&#58 The heritage register, land for public recreation and National Native Title tribunal.",
  "expanded": false,
  "tocPath": "society",
  "children": [
    {
      "name": "Heritage register",
      "tocPath": "heritagereg",
      "serviceId": "adminbdyframe",
      "layerId": 78,
      "qspatialUrl": "http://qldspatial.information.qld.gov.au/catalogue/custom/search.page?q=%22heritage register%22"
    },
    {
      "name": "Land for public recreation",
      "tocPath": "landpubrec",
      "serviceId": "adminbdyframe",
      "layerId": 25,
      "qspatialUrl": "http://qldspatial.information.qld.gov.au/catalogue/custom/search.page?q=%22Land%20for%20public%20recreation%22"
    },
    {
      "name": "National native title tribunal",
      "tocPath": "nntt",
      "children": [
        {
          "name": "Registered native title bodies corporate",
          "tocPath": "rntbc",
          "serviceId": "nntt",
          "qspatialUrl": "http://www.ntv.nntt.gov.au/download/download.asp"
        },
        {
          "name": "Future act determination applications",
          "tocPath": "fdeter",
          "serviceId": "nntt1",
          "qspatialUrl": "http://www.ntv.nntt.gov.au/download/download.asp"
        },
        {
          "name": "Future act objections",
          "tocPath": "fobject",
          "serviceId": "nntt2",
          "qspatialUrl": "http://www.ntv.nntt.gov.au/download/download.asp"
        },
        {
          "name": "Future act notices current",
          "tocPath": "fnotc",
          "serviceId": "nntt3",
          "qspatialUrl": "http://www.ntv.nntt.gov.au/download/download.asp"
        },
        {
          "name": "Indigenous land use agreements",
          "tocPath": "ilua",
          "serviceId": "nntt4",
          "qspatialUrl": "http://www.ntv.nntt.gov.au/download/download.asp"
        },
        {
          "name": "Native title determination outcomes",
          "tocPath": "ntdo",
          "serviceId": "nntt5",
          "qspatialUrl": "http://www.ntv.nntt.gov.au/download/download.asp"
        },
        {
          "name": "Native title determinations",
          "tocPath": "ntd",
          "serviceId": "nntt6",
          "qspatialUrl": "http://www.ntv.nntt.gov.au/download/download.asp"
        },
        {
          "name": "Register of native title claims",
          "tocPath": "rntc",
          "serviceId": "nntt7",
          "qspatialUrl": "http://www.ntv.nntt.gov.au/download/download.asp"
        },
        {
          "name": "Schedule of native title determination applications",
          "tocPath": "sntda",
          "serviceId": "nntt8",
          "qspatialUrl": "http://www.ntv.nntt.gov.au/download/download.asp"
        },
        {
          "name": "Representative Aboriginal and Torres Strait Islander Body (RATSIB) areas",
          "tocPath": "ratsib",
          "serviceId": "nntt9",
          "qspatialUrl": "http://www.ntv.nntt.gov.au/download/download.asp"
        }
      ]
    },
    {
      "name": "Schools and school catchments",
      "tocPath": "ssc",
      "children": [
        {
          "name": "State and non-state schools",
          "tocPath": "sasc",
          "serviceId": "school",
          "layerId": 0,
          "qspatialUrl": "https://data.qld.gov.au/dataset/state-and-non-state-school-details"
        },
        {
          "name": "Primary state school catchments",
          "tocPath": "pssc",
          "serviceId": "school",
          "layerId": 1,
          "qspatialUrl": "https://data.qld.gov.au/dataset/queensland-state-schools-geographic-information"
        },
        {
          "name": "Junior secondary school catchments",
          "tocPath": "jssc",
          "serviceId": "school",
          "layerId": 2,
          "qspatialUrl": "https://data.qld.gov.au/dataset/queensland-state-schools-geographic-information"
        },
        {
          "name": "Senior secondary school catchments",
          "tocPath": "sssc",
          "serviceId": "school",
          "layerId": 3,
          "qspatialUrl": "https://data.qld.gov.au/dataset/queensland-state-schools-geographic-information"
        }
      ]
    }
  ]
}